<svg width="24" height="24" viewBox="0 0 24 24" fill="none" xmlns="http://www.w3.org/2000/svg">
<mask id="path-1-outside-1" maskUnits="userSpaceOnUse" x="13.7954" y="5.9624" width="4" height="4" fill="black">
<rect fill="white" x="13.7954" y="5.9624" width="4" height="4"/>
<path d="M16.2375 7.25828C15.9023 7.06178 15.5749 6.9624 15.3161 6.9624C15.0589 6.9624 14.8706 7.06178 14.8136 7.25828C14.6974 7.65165 15.1496 8.28915 15.8209 8.68253C16.1569 8.87978 16.4839 8.97803 16.7419 8.97803C16.9991 8.97803 17.1874 8.87978 17.2459 8.68253C17.361 8.28915 16.9095 7.65165 16.2375 7.25828Z"/>
</mask>
<path d="M16.2375 7.25828C15.9023 7.06178 15.5749 6.9624 15.3161 6.9624C15.0589 6.9624 14.8706 7.06178 14.8136 7.25828C14.6974 7.65165 15.1496 8.28915 15.8209 8.68253C16.1569 8.87978 16.4839 8.97803 16.7419 8.97803C16.9991 8.97803 17.1874 8.87978 17.2459 8.68253C17.361 8.28915 16.9095 7.65165 16.2375 7.25828Z" fill="#DB5540"/>
<path d="M14.8136 7.25828L15.2931 7.39998L15.2938 7.39757L14.8136 7.25828ZM15.8209 8.68253L16.074 8.25134L16.0737 8.25115L15.8209 8.68253ZM17.2459 8.68253L17.7252 8.8247L17.7258 8.82297L17.2459 8.68253ZM16.4903 6.82691C16.105 6.60105 15.6902 6.4624 15.3161 6.4624V7.4624C15.4596 7.4624 15.6995 7.5225 15.9847 7.68964L16.4903 6.82691ZM15.3161 6.4624C14.9485 6.4624 14.4789 6.6176 14.3334 7.11898L15.2938 7.39757C15.2903 7.40967 15.2828 7.42613 15.2698 7.44229C15.2571 7.45811 15.2446 7.46691 15.2381 7.47063C15.2323 7.47395 15.234 7.47171 15.2475 7.46866C15.261 7.4656 15.2835 7.4624 15.3161 7.4624V6.4624ZM14.3341 7.11658C14.2093 7.53909 14.405 7.96427 14.6138 8.25929C14.8414 8.58078 15.1776 8.88506 15.5681 9.11391L16.0737 8.25115C15.7929 8.08662 15.5673 7.87546 15.43 7.68151C15.274 7.4611 15.3017 7.37084 15.2931 7.39998L14.3341 7.11658ZM15.5678 9.11372C15.9548 9.34093 16.3692 9.47803 16.7419 9.47803V8.47803C16.5986 8.47803 16.359 8.41863 16.074 8.25134L15.5678 9.11372ZM16.7419 9.47803C17.109 9.47803 17.577 9.32469 17.7252 8.8247L16.7665 8.54036C16.7699 8.52913 16.7771 8.51324 16.7899 8.49742C16.8025 8.48193 16.8148 8.47328 16.8212 8.46963C16.8269 8.46639 16.825 8.46868 16.8114 8.47175C16.7977 8.47483 16.7749 8.47803 16.7419 8.47803V9.47803ZM17.7258 8.82297C17.8492 8.40111 17.6539 7.97662 17.4449 7.68146C17.2173 7.35999 16.8811 7.05567 16.4901 6.82677L15.9849 7.68978C16.2659 7.85426 16.4915 8.06538 16.6288 8.25934C16.7848 8.47962 16.7577 8.57057 16.766 8.54209L17.7258 8.82297Z" fill="#DB5540" mask="url(#path-1-outside-1)"/>
<mask id="path-3-outside-2" maskUnits="userSpaceOnUse" x="7.5293" y="16.9771" width="5" height="4" fill="black">
<rect fill="white" x="7.5293" y="16.9771" width="5" height="4"/>
<path d="M10.9236 18.0538C10.6817 17.9672 10.3409 17.9499 9.95761 18.0223C9.19261 18.1689 8.55361 18.6189 8.52999 19.0281C8.51799 19.2324 8.66274 19.3888 8.90574 19.4747C9.14836 19.5613 9.48961 19.5778 9.87174 19.5051C10.6371 19.3596 11.2765 18.9099 11.3001 18.4997C11.3121 18.2953 11.1674 18.1393 10.9236 18.0538Z"/>
</mask>
<path d="M10.9236 18.0538C10.6817 17.9672 10.3409 17.9499 9.95761 18.0223C9.19261 18.1689 8.55361 18.6189 8.52999 19.0281C8.51799 19.2324 8.66274 19.3888 8.90574 19.4747C9.14836 19.5613 9.48961 19.5778 9.87174 19.5051C10.6371 19.3596 11.2765 18.9099 11.3001 18.4997C11.3121 18.2953 11.1674 18.1393 10.9236 18.0538Z" fill="#DB5540"/>
<path d="M9.95761 18.0223L9.86483 17.531L9.86349 17.5313L9.95761 18.0223ZM8.52999 19.0281L9.02913 19.0574L9.02916 19.0569L8.52999 19.0281ZM8.90574 19.4747L9.07386 19.0038L9.07234 19.0033L8.90574 19.4747ZM9.87174 19.5051L9.77836 19.0139L9.77823 19.0139L9.87174 19.5051ZM11.3001 18.4997L10.801 18.4704L10.8009 18.4709L11.3001 18.4997ZM11.0922 17.5831C10.7417 17.4576 10.3053 17.4478 9.86483 17.531L10.0504 18.5136C10.3764 18.4521 10.6217 18.4768 10.755 18.5245L11.0922 17.5831ZM9.86349 17.5313C9.41848 17.6166 8.99992 17.7911 8.67785 18.018C8.38216 18.2263 8.05614 18.5608 8.03082 18.9992L9.02916 19.0569C9.02746 19.0862 9.03276 18.9912 9.25373 18.8355C9.44831 18.6985 9.73175 18.5747 10.0517 18.5134L9.86349 17.5313ZM8.03085 18.9988C8.00017 19.5213 8.39315 19.8238 8.73914 19.9461L9.07234 19.0033C9.04133 18.9923 9.02102 18.9817 9.00915 18.9743C8.99733 18.9668 8.99638 18.9641 9.00073 18.9691C9.00562 18.9748 9.01456 18.9873 9.02133 19.0066C9.02825 19.0264 9.02988 19.0446 9.02913 19.0574L8.03085 18.9988ZM8.73762 19.9456C9.08906 20.0711 9.52601 20.0799 9.96525 19.9962L9.77823 19.0139C9.45322 19.0758 9.20767 19.0516 9.07386 19.0038L8.73762 19.9456ZM9.96512 19.9963C10.4105 19.9116 10.8294 19.7374 11.1518 19.5106C11.4481 19.3021 11.774 18.9674 11.7993 18.5284L10.8009 18.4709C10.8026 18.4423 10.797 18.5375 10.5763 18.6928C10.3818 18.8296 10.0984 18.953 9.77836 19.0139L9.96512 19.9963ZM11.7993 18.529C11.83 18.0056 11.4358 17.7036 11.0891 17.582L10.7581 18.5256C10.7893 18.5366 10.8097 18.5472 10.8216 18.5546C10.8335 18.562 10.8343 18.5647 10.8298 18.5595C10.8248 18.5537 10.8157 18.541 10.8088 18.5214C10.8018 18.5015 10.8002 18.4831 10.801 18.4704L11.7993 18.529Z" fill="#DB5540" mask="url(#path-3-outside-2)"/>
<mask id="path-5-outside-3" maskUnits="userSpaceOnUse" x="11.2319" y="16.145" width="5" height="4" fill="black">
<rect fill="white" x="11.2319" y="16.145" width="5" height="4"/>
<path d="M14.6254 17.2214C14.3832 17.1355 14.0412 17.1175 13.6594 17.1907C12.8948 17.3365 12.2562 17.7854 12.2325 18.1957C12.2213 18.4004 12.3657 18.556 12.6083 18.6423C12.8509 18.7285 13.1925 18.7454 13.5743 18.6734C14.3404 18.5272 14.9775 18.0779 15.0019 17.668C15.0124 17.4633 14.8684 17.308 14.6254 17.2214Z"/>
</mask>
<path d="M14.6254 17.2214C14.3832 17.1355 14.0412 17.1175 13.6594 17.1907C12.8948 17.3365 12.2562 17.7854 12.2325 18.1957C12.2213 18.4004 12.3657 18.556 12.6083 18.6423C12.8509 18.7285 13.1925 18.7454 13.5743 18.6734C14.3404 18.5272 14.9775 18.0779 15.0019 17.668C15.0124 17.4633 14.8684 17.308 14.6254 17.2214Z" fill="#DB5540"/>
<path d="M13.6594 17.1907L13.7531 17.6818L13.7535 17.6817L13.6594 17.1907ZM12.2325 18.1957L11.7334 18.1669L11.7333 18.1682L12.2325 18.1957ZM13.5743 18.6734L13.667 19.1647L13.6681 19.1645L13.5743 18.6734ZM15.0019 17.668L15.5011 17.6977L15.5013 17.6936L15.0019 17.668ZM14.7925 16.7501C14.4432 16.6263 14.0064 16.6151 13.5654 16.6996L13.7535 17.6817C14.0759 17.62 14.3231 17.6447 14.4584 17.6927L14.7925 16.7501ZM13.5657 16.6995C13.1209 16.7844 12.7024 16.9584 12.3803 17.1852C12.0843 17.3935 11.7586 17.7281 11.7334 18.1669L12.7317 18.2244C12.7301 18.253 12.7356 18.158 12.9559 18.0029C13.1502 17.8662 13.4333 17.7428 13.7531 17.6818L13.5657 16.6995ZM11.7333 18.1682C11.7047 18.6894 12.0955 18.9906 12.4408 19.1134L12.7758 18.1712C12.7446 18.1601 12.7241 18.1494 12.7122 18.1419C12.7003 18.1344 12.6993 18.1316 12.7036 18.1366C12.7085 18.1422 12.7173 18.1546 12.724 18.1737C12.7309 18.1932 12.7325 18.2109 12.7318 18.2231L11.7333 18.1682ZM12.4408 19.1134C12.7914 19.238 13.2281 19.2475 13.667 19.1647L13.4816 18.1821C13.157 18.2433 12.9104 18.219 12.7758 18.1712L12.4408 19.1134ZM13.6681 19.1645C14.1136 19.0795 14.5322 18.9052 14.8542 18.6783C15.1504 18.4697 15.475 18.1355 15.501 17.6977L14.5028 17.6384C14.5045 17.6105 14.4983 17.7058 14.2783 17.8608C14.0842 17.9976 13.8011 18.1211 13.4805 18.1823L13.6681 19.1645ZM15.5013 17.6936C15.5279 17.1739 15.139 16.8737 14.7933 16.7504L14.4575 17.6924C14.489 17.7036 14.5096 17.7144 14.5217 17.722C14.5337 17.7295 14.5348 17.7324 14.5305 17.7275C14.5257 17.7219 14.517 17.7097 14.5103 17.6909C14.5035 17.6717 14.502 17.6542 14.5026 17.6424L15.5013 17.6936Z" fill="#DB5540" mask="url(#path-5-outside-3)"/>
<mask id="path-7-outside-4" maskUnits="userSpaceOnUse" x="14.7817" y="15.4199" width="5" height="4" fill="black">
<rect fill="white" x="14.7817" y="15.4199" width="5" height="4"/>
<path d="M18.1752 16.4959C17.9334 16.41 17.591 16.3928 17.2085 16.4656C16.4446 16.6114 15.8052 17.0607 15.7824 17.4709C15.7711 17.6753 15.9151 17.8313 16.1581 17.9176C16.4004 18.0038 16.7424 18.0207 17.1249 17.9479C17.8902 17.8021 18.5281 17.3528 18.5517 16.9433C18.563 16.7382 18.4182 16.5825 18.1752 16.4959Z"/>
</mask>
<path d="M18.1752 16.4959C17.9334 16.41 17.591 16.3928 17.2085 16.4656C16.4446 16.6114 15.8052 17.0607 15.7824 17.4709C15.7711 17.6753 15.9151 17.8313 16.1581 17.9176C16.4004 18.0038 16.7424 18.0207 17.1249 17.9479C17.8902 17.8021 18.5281 17.3528 18.5517 16.9433C18.563 16.7382 18.4182 16.5825 18.1752 16.4959Z" fill="#DB5540"/>
<path d="M17.2085 16.4656L17.1151 15.9744L17.1147 15.9744L17.2085 16.4656ZM15.7824 17.4709L15.2831 17.4431L15.2831 17.4434L15.7824 17.4709ZM16.1581 17.9176L16.3258 17.4465L16.3253 17.4464L16.1581 17.9176ZM17.1249 17.9479L17.2183 18.4391L17.2185 18.4391L17.1249 17.9479ZM18.5517 16.9433L19.0509 16.9721L19.051 16.9707L18.5517 16.9433ZM18.3425 16.0247C17.9928 15.9006 17.5554 15.8906 17.1151 15.9744L17.3019 16.9567C17.6266 16.895 17.8739 16.9195 18.0079 16.9671L18.3425 16.0247ZM17.1147 15.9744C16.6702 16.0593 16.2517 16.2335 15.9296 16.4603C15.6338 16.6686 15.3076 17.0036 15.2831 17.4431L16.2816 17.4988C16.2799 17.528 16.2849 17.4332 16.5054 17.2779C16.6997 17.1411 16.9829 17.0177 17.3023 16.9567L17.1147 15.9744ZM15.2831 17.4434C15.2545 17.9638 15.6442 18.2657 15.9909 18.3887L16.3253 17.4464C16.2942 17.4353 16.2738 17.4247 16.262 17.4172C16.2501 17.4097 16.2492 17.407 16.2535 17.412C16.2584 17.4176 16.2672 17.43 16.2739 17.449C16.2807 17.4684 16.2823 17.4862 16.2816 17.4984L15.2831 17.4434ZM15.9904 18.3886C16.341 18.5134 16.7784 18.5228 17.2183 18.4391L17.0314 17.4567C16.7063 17.5186 16.4597 17.4942 16.3258 17.4465L15.9904 18.3886ZM17.2185 18.4391C17.6637 18.3542 18.0823 18.1801 18.4043 17.9533C18.7002 17.7449 19.0256 17.4105 19.0509 16.9721L18.0526 16.9145C18.0542 16.8856 18.0489 16.9806 17.8286 17.1357C17.6344 17.2724 17.3514 17.3958 17.0312 17.4568L17.2185 18.4391ZM19.051 16.9707C19.0796 16.4488 18.6879 16.1479 18.3431 16.025L18.0073 16.9669C18.0388 16.9781 18.0594 16.9889 18.0716 16.9965C18.0837 17.0042 18.0848 17.0071 18.0806 17.0022C18.0758 16.9966 18.067 16.9843 18.0602 16.9652C18.0534 16.9458 18.0518 16.928 18.0525 16.9159L19.051 16.9707Z" fill="#DB5540" mask="url(#path-7-outside-4)"/>
<mask id="path-9-outside-5" maskUnits="userSpaceOnUse" x="6.28271" y="8.70703" width="4" height="5" fill="black">
<rect fill="white" x="6.28271" y="8.70703" width="4" height="5"/>
<path d="M8.01772 9.85499C7.81522 10.014 7.61835 10.2937 7.47435 10.656C7.1886 11.3805 7.22685 12.1597 7.55947 12.3986C7.72672 12.5179 7.93597 12.48 8.13847 12.321C8.3421 12.162 8.53897 11.8822 8.68222 11.5204C8.96797 10.7962 8.9301 10.0159 8.5971 9.77699C8.43022 9.65774 8.2206 9.69562 8.01772 9.85499Z"/>
</mask>
<path d="M8.01772 9.85499C7.81522 10.014 7.61835 10.2937 7.47435 10.656C7.1886 11.3805 7.22685 12.1597 7.55947 12.3986C7.72672 12.5179 7.93597 12.48 8.13847 12.321C8.3421 12.162 8.53897 11.8822 8.68222 11.5204C8.96797 10.7962 8.9301 10.0159 8.5971 9.77699C8.43022 9.65774 8.2206 9.69562 8.01772 9.85499Z" fill="#DB5540"/>
<path d="M7.47435 10.656L7.00971 10.4713L7.00922 10.4725L7.47435 10.656ZM7.55947 12.3986L7.26781 12.8047L7.2692 12.8057L7.55947 12.3986ZM8.13847 12.321L7.83075 11.9269L7.82969 11.9277L8.13847 12.321ZM8.68222 11.5204L9.14712 11.7044L9.14732 11.7039L8.68222 11.5204ZM8.5971 9.77699L8.88854 9.37071L8.8878 9.37019L8.5971 9.77699ZM7.70894 9.46173C7.41632 9.6915 7.17502 10.0554 7.00971 10.4713L7.93898 10.8407C8.06167 10.5321 8.21413 10.3365 8.3265 10.2483L7.70894 9.46173ZM7.00922 10.4725C6.84299 10.894 6.76638 11.3406 6.78562 11.7338C6.80328 12.095 6.9114 12.5488 7.26781 12.8047L7.85113 11.9925C7.87492 12.0096 7.7976 11.9543 7.78442 11.685C7.77281 11.4477 7.81995 11.1425 7.93948 10.8394L7.00922 10.4725ZM7.2692 12.8057C7.69308 13.108 8.15675 12.9424 8.44725 12.7143L7.82969 11.9277C7.80396 11.9479 7.78432 11.9593 7.77185 11.9652C7.75943 11.9711 7.7567 11.9704 7.76326 11.9694C7.77063 11.9684 7.78563 11.9676 7.80495 11.9721C7.82466 11.9766 7.84015 11.9847 7.84975 11.9915L7.2692 12.8057ZM8.4462 12.7151C8.74081 12.485 8.98245 12.1204 9.14712 11.7044L8.21732 11.3363C8.0955 11.6441 7.94338 11.839 7.83075 11.9269L8.4462 12.7151ZM9.14732 11.7039C9.31357 11.2826 9.39027 10.8358 9.3711 10.4424C9.3535 10.0812 9.24548 9.62676 8.88854 9.37072L8.30566 10.1833C8.28172 10.1661 8.35914 10.2213 8.37228 10.4911C8.38386 10.7286 8.33662 11.034 8.21713 11.3368L9.14732 11.7039ZM8.8878 9.37019C8.46383 9.06722 7.99931 9.23363 7.70884 9.46181L8.3266 10.2482C8.35241 10.2279 8.37215 10.2165 8.38472 10.2105C8.39724 10.2046 8.40006 10.2052 8.39356 10.2062C8.38627 10.2073 8.37124 10.2081 8.35181 10.2035C8.33196 10.1989 8.31626 10.1908 8.30639 10.1838L8.8878 9.37019Z" fill="#DB5540" mask="url(#path-9-outside-5)"/>
<mask id="path-11-outside-6" maskUnits="userSpaceOnUse" x="2.15625" y="7.4502" width="4" height="5" fill="black">
<rect fill="white" x="2.15625" y="7.4502" width="4" height="5"/>
<path d="M3.89225 8.59884C3.68862 8.75784 3.49175 9.03684 3.3485 9.39909C3.062 10.1232 3.09987 10.9036 3.43437 11.1417C3.60012 11.2613 3.80937 11.2227 4.013 11.0637C4.2155 10.9047 4.41237 10.6253 4.55562 10.2631C4.84212 9.53934 4.80387 8.75896 4.4705 8.51971C4.304 8.40084 4.09475 8.43909 3.89225 8.59884Z"/>
</mask>
<path d="M3.89225 8.59884C3.68862 8.75784 3.49175 9.03684 3.3485 9.39909C3.062 10.1232 3.09987 10.9036 3.43437 11.1417C3.60012 11.2613 3.80937 11.2227 4.013 11.0637C4.2155 10.9047 4.41237 10.6253 4.55562 10.2631C4.84212 9.53934 4.80387 8.75896 4.4705 8.51971C4.304 8.40084 4.09475 8.43909 3.89225 8.59884Z" fill="#DB5540"/>
<path d="M3.3485 9.39909L3.81343 9.58304L3.81346 9.58296L3.3485 9.39909ZM3.43437 11.1417L3.72699 10.7363L3.72434 10.7344L3.43437 11.1417ZM4.013 11.0637L4.32072 11.4578L4.32178 11.457L4.013 11.0637ZM4.55562 10.2631L4.09072 10.0791L4.09066 10.0792L4.55562 10.2631ZM4.4705 8.51971L4.76202 8.11349L4.76103 8.11278L4.4705 8.51971ZM3.58452 8.20475C3.29016 8.4346 3.0484 8.7983 2.88353 9.21522L3.81346 9.58296C3.93509 9.27538 4.08708 9.08107 4.19997 8.99293L3.58452 8.20475ZM2.88356 9.21514C2.71685 9.6365 2.63985 10.0835 2.65916 10.4771C2.67689 10.8386 2.78557 11.2936 3.1444 11.549L3.72434 10.7344C3.74868 10.7517 3.67117 10.6975 3.65796 10.4282C3.64633 10.191 3.69364 9.8858 3.81343 9.58304L2.88356 9.21514ZM3.14176 11.5471C3.56683 11.8539 4.03286 11.6826 4.32072 11.4578L3.70527 10.6696C3.67893 10.6902 3.65873 10.7019 3.64574 10.708C3.63278 10.7142 3.62975 10.7136 3.63627 10.7126C3.6436 10.7115 3.65909 10.7106 3.67927 10.7153C3.69992 10.7201 3.71642 10.7287 3.72698 10.7363L3.14176 11.5471ZM4.32178 11.457C4.61431 11.2273 4.85579 10.8637 5.02059 10.447L4.09066 10.0792C3.96895 10.387 3.81669 10.5821 3.70421 10.6705L4.32178 11.457ZM5.02052 10.4471C5.18731 10.0258 5.26415 9.57885 5.24492 9.1853C5.22724 8.82376 5.11886 8.36958 4.76202 8.11349L4.17897 8.92593C4.15551 8.90909 4.23294 8.96473 4.24611 9.23413C4.25771 9.47151 4.21044 9.77664 4.09072 10.0791L5.02052 10.4471ZM4.76103 8.11278C4.33654 7.80972 3.87202 7.97794 3.58257 8.20628L4.20193 8.99139C4.22771 8.97105 4.24743 8.95959 4.25996 8.95361C4.27245 8.94765 4.2752 8.94834 4.26858 8.94933C4.26116 8.95043 4.24592 8.95125 4.22621 8.94671C4.20607 8.94208 4.19008 8.93387 4.17996 8.92664L4.76103 8.11278Z" fill="#DB5540" mask="url(#path-11-outside-6)"/>
<mask id="path-13-outside-7" maskUnits="userSpaceOnUse" x="-0.25" y="-0.249512" width="25" height="24" fill="black">
<rect fill="white" x="-0.25" y="-0.249512" width="25" height="24"/>
<path d="M23.1345 13.3964L20.6764 5.98343C20.3051 4.86368 19.1374 3.6948 18.0169 3.32355L10.6031 0.865426C10.1404 0.712051 9.7245 0.712801 9.40425 0.863926C9.05775 0.958051 8.66175 1.1073 8.256 1.2963C7.70137 1.55468 7.01737 1.9473 6.72712 2.28893C6.69448 2.31693 6.66284 2.34607 6.63225 2.3763L1.66012 7.34955C0.887249 8.12205 0.543374 9.59205 0.877499 10.6964L3.03825 17.8529C3.07762 17.9838 3.12637 18.1072 3.18337 18.2201C3.35737 18.7495 4.07062 19.4917 4.28962 19.7107C4.50937 19.9301 5.25262 20.6452 5.78212 20.8188C5.89462 20.8747 6.018 20.9234 6.14812 20.9628L13.3042 23.1236C13.5817 23.2079 13.8866 23.2503 14.211 23.2503H14.2114C15.141 23.2503 16.0984 22.8933 16.6504 22.3413L21.6236 17.3677C21.6551 17.3362 21.6836 17.3047 21.7114 17.2728C22.0534 16.9814 22.446 16.2974 22.7036 15.7447C22.8937 15.3371 23.043 14.9399 23.1371 14.5931C23.2886 14.2709 23.2879 13.8584 23.1345 13.3964ZM4.31587 18.6629C4.04325 18.3314 3.89887 18.0858 3.87 17.9838L3.84225 17.9148C3.79757 17.8279 3.76116 17.737 3.7335 17.6433L1.572 10.4864C1.31737 9.64455 1.59262 8.44305 2.17312 7.86293L7.14637 2.8893C7.17187 2.86343 7.19887 2.84093 7.22475 2.81843L7.27275 2.76818C7.3575 2.66093 7.58737 2.48618 7.91737 2.29193C8.232 2.3913 8.49975 2.6883 8.64487 3.17055L10.8056 10.3274C11.0996 11.2998 10.7899 12.6371 10.1137 13.3132L5.14125 18.2864C4.8705 18.5568 4.58325 18.6742 4.31587 18.6629ZM21.231 16.7279L21.1796 16.7778C21.1575 16.8033 21.1357 16.8292 21.1099 16.8547L16.1374 21.8283C15.7211 22.2446 14.9467 22.5239 14.2114 22.5239H14.211C13.9752 22.5264 13.7403 22.4944 13.5139 22.4287L6.35775 20.2679C6.26407 20.24 6.17318 20.2035 6.08625 20.1588L6.01687 20.1318C5.91525 20.1033 5.66962 19.9582 5.33812 19.6856C5.3265 19.4178 5.44312 19.1309 5.71425 18.8598L10.6864 13.8869C11.3629 13.2104 12.6994 12.9007 13.6721 13.1947L20.8282 15.3558C21.3112 15.5017 21.6082 15.7698 21.7072 16.0844C21.5137 16.4137 21.3382 16.6428 21.231 16.7279ZM22.4737 14.2979L22.4452 14.3729C22.41 14.5068 22.3616 14.6553 22.3057 14.8091C22.1044 14.8477 21.8569 14.8267 21.57 14.7314L14.1566 12.2733C13.1486 11.9396 12.0604 10.8513 11.7274 9.84368L9.26925 2.4303C9.17437 2.14343 9.153 1.8963 9.19162 1.69455C9.34462 1.63943 9.492 1.59105 9.6255 1.5558L9.70162 1.52618C9.7665 1.49243 9.85012 1.47518 9.95025 1.47518C10.0747 1.47518 10.2176 1.5018 10.3755 1.55393L17.7889 4.01205C18.6844 4.30905 19.6909 5.3163 19.9875 6.21143L22.446 13.6244C22.539 13.9072 22.5495 14.1521 22.4737 14.2979Z"/>
</mask>
<path d="M23.1345 13.3964L20.6764 5.98343C20.3051 4.86368 19.1374 3.6948 18.0169 3.32355L10.6031 0.865426C10.1404 0.712051 9.7245 0.712801 9.40425 0.863926C9.05775 0.958051 8.66175 1.1073 8.256 1.2963C7.70137 1.55468 7.01737 1.9473 6.72712 2.28893C6.69448 2.31693 6.66284 2.34607 6.63225 2.3763L1.66012 7.34955C0.887249 8.12205 0.543374 9.59205 0.877499 10.6964L3.03825 17.8529C3.07762 17.9838 3.12637 18.1072 3.18337 18.2201C3.35737 18.7495 4.07062 19.4917 4.28962 19.7107C4.50937 19.9301 5.25262 20.6452 5.78212 20.8188C5.89462 20.8747 6.018 20.9234 6.14812 20.9628L13.3042 23.1236C13.5817 23.2079 13.8866 23.2503 14.211 23.2503H14.2114C15.141 23.2503 16.0984 22.8933 16.6504 22.3413L21.6236 17.3677C21.6551 17.3362 21.6836 17.3047 21.7114 17.2728C22.0534 16.9814 22.446 16.2974 22.7036 15.7447C22.8937 15.3371 23.043 14.9399 23.1371 14.5931C23.2886 14.2709 23.2879 13.8584 23.1345 13.3964ZM4.31587 18.6629C4.04325 18.3314 3.89887 18.0858 3.87 17.9838L3.84225 17.9148C3.79757 17.8279 3.76116 17.737 3.7335 17.6433L1.572 10.4864C1.31737 9.64455 1.59262 8.44305 2.17312 7.86293L7.14637 2.8893C7.17187 2.86343 7.19887 2.84093 7.22475 2.81843L7.27275 2.76818C7.3575 2.66093 7.58737 2.48618 7.91737 2.29193C8.232 2.3913 8.49975 2.6883 8.64487 3.17055L10.8056 10.3274C11.0996 11.2998 10.7899 12.6371 10.1137 13.3132L5.14125 18.2864C4.8705 18.5568 4.58325 18.6742 4.31587 18.6629ZM21.231 16.7279L21.1796 16.7778C21.1575 16.8033 21.1357 16.8292 21.1099 16.8547L16.1374 21.8283C15.7211 22.2446 14.9467 22.5239 14.2114 22.5239H14.211C13.9752 22.5264 13.7403 22.4944 13.5139 22.4287L6.35775 20.2679C6.26407 20.24 6.17318 20.2035 6.08625 20.1588L6.01687 20.1318C5.91525 20.1033 5.66962 19.9582 5.33812 19.6856C5.3265 19.4178 5.44312 19.1309 5.71425 18.8598L10.6864 13.8869C11.3629 13.2104 12.6994 12.9007 13.6721 13.1947L20.8282 15.3558C21.3112 15.5017 21.6082 15.7698 21.7072 16.0844C21.5137 16.4137 21.3382 16.6428 21.231 16.7279ZM22.4737 14.2979L22.4452 14.3729C22.41 14.5068 22.3616 14.6553 22.3057 14.8091C22.1044 14.8477 21.8569 14.8267 21.57 14.7314L14.1566 12.2733C13.1486 11.9396 12.0604 10.8513 11.7274 9.84368L9.26925 2.4303C9.17437 2.14343 9.153 1.8963 9.19162 1.69455C9.34462 1.63943 9.492 1.59105 9.6255 1.5558L9.70162 1.52618C9.7665 1.49243 9.85012 1.47518 9.95025 1.47518C10.0747 1.47518 10.2176 1.5018 10.3755 1.55393L17.7889 4.01205C18.6844 4.30905 19.6909 5.3163 19.9875 6.21143L22.446 13.6244C22.539 13.9072 22.5495 14.1521 22.4737 14.2979Z" fill="#DB5540"/>
<path d="M20.6764 5.98343L20.2018 6.14078L20.2018 6.1408L20.6764 5.98343ZM18.0169 3.32355L17.8595 3.79814L17.8596 3.79818L18.0169 3.32355ZM10.6031 0.865426L10.7605 0.390833L10.7604 0.390816L10.6031 0.865426ZM9.40425 0.863926L9.53532 1.34644L9.57781 1.3349L9.61763 1.31611L9.40425 0.863926ZM8.256 1.2963L8.04488 0.84306L8.04486 0.843069L8.256 1.2963ZM6.72712 2.28893L7.05265 2.66844L7.08261 2.64274L7.10817 2.61267L6.72712 2.28893ZM6.63225 2.3763L6.28076 2.02068L6.27866 2.02279L6.63225 2.3763ZM1.66012 7.34955L2.01359 7.70319L2.01372 7.70306L1.66012 7.34955ZM0.877499 10.6964L1.35616 10.5519L1.35608 10.5516L0.877499 10.6964ZM3.03825 17.8529L3.51705 17.7089L3.51691 17.7084L3.03825 17.8529ZM3.18337 18.2201L3.65838 18.064L3.64664 18.0282L3.62969 17.9947L3.18337 18.2201ZM4.28962 19.7107L3.93607 20.0642L3.93637 20.0645L4.28962 19.7107ZM5.78212 20.8188L6.00454 20.371L5.97221 20.3549L5.93791 20.3437L5.78212 20.8188ZM6.14812 20.9628L6.00331 21.4414L6.0036 21.4415L6.14812 20.9628ZM13.3042 23.1236L13.4497 22.6452L13.4488 22.6449L13.3042 23.1236ZM16.6504 22.3413L17.0039 22.6949L17.0039 22.6948L16.6504 22.3413ZM21.6236 17.3677L21.2701 17.0141L21.2701 17.0141L21.6236 17.3677ZM21.7114 17.2728L21.3871 16.8922L21.3587 16.9164L21.3343 16.9445L21.7114 17.2728ZM22.7036 15.7447L22.2505 15.5333L22.2504 15.5335L22.7036 15.7447ZM23.1371 14.5931L22.6847 14.3803L22.666 14.4199L22.6546 14.4621L23.1371 14.5931ZM3.87 17.9838L4.35109 17.8476L4.34383 17.822L4.33389 17.7972L3.87 17.9838ZM3.84225 17.9148L4.30614 17.7282L4.2975 17.7067L4.2869 17.6861L3.84225 17.9148ZM3.7335 17.6433L4.21306 17.5018L4.21215 17.4987L3.7335 17.6433ZM1.572 10.4864L2.05065 10.3419L2.05059 10.3417L1.572 10.4864ZM2.17312 7.86293L2.52656 8.21659L2.52669 8.21647L2.17312 7.86293ZM7.14637 2.8893L7.49995 3.24285L7.5025 3.24026L7.14637 2.8893ZM7.22475 2.81843L7.55284 3.19573L7.57031 3.18053L7.58631 3.16379L7.22475 2.81843ZM7.27275 2.76818L7.63431 3.11354L7.65051 3.09658L7.66505 3.07818L7.27275 2.76818ZM7.91737 2.29193L8.06797 1.81514L7.85563 1.74808L7.66374 1.86103L7.91737 2.29193ZM8.64487 3.17055L8.16608 3.31464L8.16621 3.31506L8.64487 3.17055ZM10.8056 10.3274L10.327 10.4719L10.327 10.4721L10.8056 10.3274ZM10.1137 13.3132L9.76019 12.9596L9.76017 12.9596L10.1137 13.3132ZM5.14125 18.2864L5.49456 18.6402L5.49483 18.64L5.14125 18.2864ZM21.231 16.7279L20.9202 16.3363L20.9006 16.3518L20.8827 16.3692L21.231 16.7279ZM21.1796 16.7778L20.8313 16.4191L20.816 16.434L20.802 16.4501L21.1796 16.7778ZM21.1099 16.8547L20.7589 16.4985L20.7563 16.5012L21.1099 16.8547ZM16.1374 21.8283L16.4909 22.1819L16.491 22.1818L16.1374 21.8283ZM14.211 22.5239V22.0239L14.2057 22.024L14.211 22.5239ZM13.5139 22.4287L13.3693 22.9074L13.3746 22.9089L13.5139 22.4287ZM6.35775 20.2679L6.50228 19.7893L6.50053 19.7887L6.35775 20.2679ZM6.08625 20.1588L6.31481 19.7141L6.29176 19.7023L6.26761 19.6929L6.08625 20.1588ZM6.01687 20.1318L6.19823 19.6658L6.17544 19.657L6.15189 19.6504L6.01687 20.1318ZM5.33812 19.6856L4.83859 19.7072L4.84827 19.9301L5.02053 20.0717L5.33812 19.6856ZM5.71425 18.8598L6.0678 19.2134L6.06783 19.2133L5.71425 18.8598ZM10.6864 13.8869L10.3328 13.5334L10.3328 13.5334L10.6864 13.8869ZM13.6721 13.1947L13.5275 13.6733L13.5276 13.6733L13.6721 13.1947ZM20.8282 15.3558L20.9728 14.8772L20.9728 14.8772L20.8282 15.3558ZM21.7072 16.0844L22.1383 16.3378L22.2509 16.1462L22.1842 15.9344L21.7072 16.0844ZM22.4452 14.3729L21.9779 14.1953L21.9685 14.22L21.9617 14.2456L22.4452 14.3729ZM22.3057 14.8091L22.3999 15.3001L22.6787 15.2466L22.7757 14.9798L22.3057 14.8091ZM21.57 14.7314L21.7276 14.2569L21.7274 14.2568L21.57 14.7314ZM14.1566 12.2733L14.314 11.7987L14.3138 11.7986L14.1566 12.2733ZM11.7274 9.84368L12.2021 9.68678L12.202 9.68631L11.7274 9.84368ZM9.26925 2.4303L8.79454 2.5873L8.79466 2.58767L9.26925 2.4303ZM9.19162 1.69455L9.02214 1.22415L8.75411 1.32072L8.70054 1.60053L9.19162 1.69455ZM9.6255 1.5558L9.75315 2.03923L9.78048 2.03201L9.80683 2.02176L9.6255 1.5558ZM9.70162 1.52618L9.88296 1.99214L9.90828 1.98228L9.93238 1.96974L9.70162 1.52618ZM10.3755 1.55393L10.5329 1.07933L10.5323 1.07914L10.3755 1.55393ZM17.7889 4.01205L17.9463 3.53747L17.9462 3.53746L17.7889 4.01205ZM19.9875 6.21143L19.5129 6.3687L19.5129 6.36882L19.9875 6.21143ZM22.446 13.6244L22.921 13.4682L22.9206 13.467L22.446 13.6244ZM23.6091 13.2391L21.151 5.82605L20.2018 6.1408L22.6599 13.5538L23.6091 13.2391ZM21.151 5.82608C20.9351 5.17492 20.5001 4.53838 19.9812 4.01932C19.4624 3.50026 18.8258 3.06485 18.1741 2.84892L17.8596 3.79818C18.3284 3.9535 18.836 4.28815 19.274 4.72629C19.7119 5.16441 20.0464 5.67218 20.2018 6.14078L21.151 5.82608ZM18.1742 2.84896L10.7605 0.390833L10.4458 1.34002L17.8595 3.79814L18.1742 2.84896ZM10.7604 0.390816C10.2205 0.211846 9.66373 0.188603 9.19087 0.411745L9.61763 1.31611C9.78527 1.237 10.0603 1.21226 10.4458 1.34004L10.7604 0.390816ZM9.27318 0.381412C8.89334 0.484592 8.47026 0.644914 8.04488 0.84306L8.46712 1.74954C8.85324 1.56969 9.22215 1.43151 9.53532 1.34644L9.27318 0.381412ZM8.04486 0.843069C7.7529 0.979081 7.42453 1.15141 7.12712 1.33759C6.83947 1.51765 6.54243 1.73408 6.34608 1.96519L7.10817 2.61267C7.20206 2.50215 7.39216 2.35145 7.65772 2.1852C7.91353 2.02507 8.20448 1.8719 8.46714 1.74953L8.04486 0.843069ZM6.40159 1.90941C6.36002 1.94507 6.31972 1.98219 6.28077 2.02069L6.98373 2.73191C7.00595 2.70995 7.02894 2.68878 7.05265 2.66844L6.40159 1.90941ZM6.27866 2.02279L1.30653 6.99604L2.01372 7.70306L6.98584 2.72981L6.27866 2.02279ZM1.30666 6.99591C0.839272 7.46307 0.523462 8.11489 0.366823 8.78467C0.209843 9.45592 0.201998 10.1903 0.398922 10.8412L1.35608 10.5516C1.21887 10.0981 1.2159 9.54537 1.34055 9.0124C1.46553 8.47796 1.7081 8.00853 2.01359 7.70319L1.30666 6.99591ZM0.39884 10.8409L2.55959 17.9974L3.51691 17.7084L1.35616 10.5519L0.39884 10.8409ZM2.55945 17.997C2.60656 18.1536 2.66583 18.3044 2.73705 18.4454L3.62969 17.9947C3.58692 17.91 3.54869 17.814 3.51705 17.7089L2.55945 17.997ZM2.70836 18.3761C2.82655 18.7358 3.10185 19.1152 3.33203 19.3977C3.5744 19.6951 3.82052 19.9487 3.93607 20.0642L4.64318 19.3571C4.53972 19.2537 4.31972 19.0267 4.10722 18.7659C3.88252 18.4902 3.7142 18.2338 3.65838 18.064L2.70836 18.3761ZM3.93637 20.0645C4.05193 20.1799 4.30593 20.4265 4.60372 20.6694C4.8864 20.8999 5.26631 21.1759 5.62633 21.2939L5.93791 20.3437C5.76843 20.2881 5.51197 20.1197 5.23571 19.8944C4.97457 19.6814 4.74707 19.4608 4.64287 19.3568L3.93637 20.0645ZM5.55971 21.2666C5.69847 21.3355 5.84793 21.3944 6.00331 21.4414L6.29294 20.4842C6.18807 20.4525 6.09078 20.4138 6.00454 20.371L5.55971 21.2666ZM6.0036 21.4415L13.1597 23.6022L13.4488 22.6449L6.29265 20.4841L6.0036 21.4415ZM13.1588 23.6019C13.489 23.7023 13.8435 23.7503 14.211 23.7503V22.7503C13.9297 22.7503 13.6745 22.7135 13.4497 22.6452L13.1588 23.6019ZM14.211 23.7503H14.2114V22.7503H14.211V23.7503ZM14.2114 23.7503C15.2466 23.7503 16.3406 23.3581 17.0039 22.6949L16.2968 21.9877C15.8561 22.4285 15.0354 22.7503 14.2114 22.7503V23.7503ZM17.0039 22.6948L21.9772 17.7212L21.2701 17.0141L16.2968 21.9878L17.0039 22.6948ZM21.9772 17.7212C22.0198 17.6786 22.0566 17.6377 22.0885 17.6011L21.3343 16.9445C21.3106 16.9717 21.2904 16.9938 21.2701 17.0141L21.9772 17.7212ZM22.0356 17.6534C22.2665 17.4567 22.4829 17.1597 22.6629 16.8721C22.849 16.5748 23.0212 16.2469 23.1568 15.9559L22.2504 15.5335C22.1285 15.7952 21.9755 16.0857 21.8153 16.3414C21.6492 16.6069 21.4982 16.7976 21.3871 16.8922L22.0356 17.6534ZM23.1568 15.956C23.3562 15.5284 23.5165 15.1041 23.6197 14.724L22.6546 14.4621C22.5695 14.7758 22.4313 15.1457 22.2505 15.5333L23.1568 15.956ZM23.5896 14.8058C23.813 14.3307 23.7878 13.7774 23.609 13.2389L22.66 13.554C22.7879 13.9395 22.7642 14.2111 22.6847 14.3803L23.5896 14.8058ZM4.70205 18.3453C4.5761 18.1922 4.48417 18.0641 4.42299 17.9683C4.35304 17.8587 4.34433 17.8237 4.35109 17.8476L3.3889 18.12C3.42455 18.2459 3.50246 18.3847 3.58007 18.5063C3.66646 18.6417 3.78302 18.8022 3.92969 18.9805L4.70205 18.3453ZM4.33389 17.7972L4.30614 17.7282L3.37836 18.1014L3.40611 18.1704L4.33389 17.7972ZM4.2869 17.6861C4.25656 17.6271 4.23183 17.5654 4.21305 17.5018L3.25395 17.7848C3.29048 17.9086 3.33858 18.0287 3.3976 18.1435L4.2869 17.6861ZM4.21215 17.4987L2.05065 10.3419L1.09335 10.631L3.25485 17.7879L4.21215 17.4987ZM2.05059 10.3417C1.95417 10.0229 1.9517 9.6031 2.04676 9.18818C2.14241 8.7707 2.32222 8.4208 2.52656 8.21659L1.81968 7.50926C1.44353 7.88517 1.19546 8.42609 1.07202 8.96485C0.947989 9.50619 0.935203 10.1081 1.09341 10.6312L2.05059 10.3417ZM2.52669 8.21647L7.49994 3.24284L6.79281 2.53576L1.81956 7.50939L2.52669 8.21647ZM7.5025 3.24026C7.50443 3.2383 7.50848 3.23439 7.51702 3.22682C7.52128 3.22304 7.52604 3.2189 7.53215 3.21362C7.53746 3.20903 7.54566 3.20197 7.55284 3.19573L6.89666 2.44112C6.88132 2.45446 6.83323 2.49472 6.79025 2.53834L7.5025 3.24026ZM7.58631 3.16379L7.63431 3.11354L6.91119 2.42281L6.86319 2.47306L7.58631 3.16379ZM7.66505 3.07818C7.66177 3.08232 7.66909 3.07269 7.6959 3.04874C7.72088 3.02642 7.7558 2.99788 7.80166 2.96375C7.89345 2.89542 8.01779 2.81301 8.17101 2.72282L7.66374 1.86103C7.48696 1.96509 7.33137 2.06718 7.20453 2.16161C7.08633 2.24959 6.96465 2.35162 6.88045 2.45818L7.66505 3.07818ZM7.76678 2.76871C7.873 2.80226 8.0509 2.93189 8.16608 3.31464L9.12366 3.02647C8.94859 2.44471 8.591 1.98034 8.06797 1.81514L7.76678 2.76871ZM8.16621 3.31506L10.327 10.4719L11.2843 10.1829L9.12353 3.02604L8.16621 3.31506ZM10.327 10.4721C10.4437 10.858 10.4462 11.3445 10.3364 11.8185C10.2261 12.2945 10.0151 12.7047 9.76019 12.9596L10.4673 13.6667C10.8885 13.2455 11.1704 12.6491 11.3106 12.0443C11.4512 11.4375 11.4616 10.7692 11.2842 10.1827L10.327 10.4721ZM9.76017 12.9596L4.78767 17.9329L5.49483 18.64L10.4673 13.6667L9.76017 12.9596ZM4.78794 17.9326C4.59093 18.1294 4.43263 18.1674 4.33689 18.1634L4.29485 19.1625C4.73386 19.181 5.15006 18.9842 5.49456 18.6402L4.78794 17.9326ZM20.8827 16.3692L20.8313 16.4191L21.5279 17.1365L21.5793 17.0867L20.8827 16.3692ZM20.802 16.4501C20.7731 16.4833 20.7673 16.4903 20.7589 16.4986L21.4608 17.2108C21.5042 17.168 21.5419 17.1233 21.5573 17.1055L20.802 16.4501ZM20.7563 16.5012L15.7838 21.4748L16.491 22.1818L21.4635 17.2082L20.7563 16.5012ZM15.7838 21.4747C15.4836 21.775 14.8493 22.0239 14.2114 22.0239V23.0239C15.0442 23.0239 15.9587 22.7141 16.4909 22.1819L15.7838 21.4747ZM14.2114 22.0239H14.211V23.0239H14.2114V22.0239ZM14.2057 22.024C14.0188 22.0259 13.8326 22.0005 13.6531 21.9485L13.3746 22.9089C13.648 22.9882 13.9316 23.0269 14.2163 23.0239L14.2057 22.024ZM13.6584 21.95L6.50228 19.7893L6.21322 20.7466L13.3693 22.9073L13.6584 21.95ZM6.50053 19.7887C6.43645 19.7697 6.37428 19.7447 6.31481 19.7141L5.85769 20.6035C5.97209 20.6623 6.0917 20.7104 6.21497 20.7471L6.50053 19.7887ZM6.26761 19.6929L6.19823 19.6658L5.83551 20.5977L5.90489 20.6248L6.26761 19.6929ZM6.15189 19.6504C6.17342 19.6564 6.17323 19.6592 6.14338 19.6438C6.118 19.6308 6.08121 19.6098 6.03315 19.579C5.93725 19.5177 5.80906 19.4255 5.65572 19.2994L5.02053 20.0717C5.19869 20.2182 5.35906 20.3349 5.49425 20.4214C5.61515 20.4988 5.75481 20.5776 5.88186 20.6132L6.15189 19.6504ZM5.83765 19.6639C5.83348 19.5678 5.87091 19.4102 6.0678 19.2134L5.3607 18.5062C5.01534 18.8516 4.81952 19.2678 4.83859 19.7072L5.83765 19.6639ZM6.06783 19.2133L11.04 14.2405L10.3328 13.5334L5.36067 18.5063L6.06783 19.2133ZM11.0399 14.2405C11.2951 13.9853 11.7053 13.7742 12.1811 13.6639C12.6549 13.5541 13.1414 13.5566 13.5275 13.6733L13.8168 12.7161C13.2301 12.5388 12.562 12.5491 11.9552 12.6898C11.3504 12.83 10.7542 13.112 10.3328 13.5334L11.0399 14.2405ZM13.5276 13.6733L20.6837 15.8345L20.9728 14.8772L13.8167 12.716L13.5276 13.6733ZM20.6837 15.8344C21.0676 15.9504 21.197 16.1287 21.2303 16.2345L22.1842 15.9344C22.0195 15.411 21.5549 15.053 20.9728 14.8772L20.6837 15.8344ZM21.2762 15.8311C21.1867 15.9834 21.1045 16.1071 21.0362 16.1985C21.0021 16.2442 20.9734 16.2791 20.951 16.3042C20.9269 16.3311 20.9168 16.339 20.9202 16.3363L21.5418 17.1196C21.6472 17.0359 21.7489 16.9154 21.8374 16.7969C21.932 16.6702 22.0343 16.5147 22.1383 16.3378L21.2762 15.8311ZM22.0064 14.1203L21.9779 14.1953L22.9126 14.5505L22.9411 14.4755L22.0064 14.1203ZM21.9617 14.2456C21.9316 14.3601 21.8885 14.4934 21.8358 14.6383L22.7757 14.9798C22.8348 14.8172 22.8884 14.6535 22.9288 14.5002L21.9617 14.2456ZM22.2116 14.318C22.1159 14.3364 21.9573 14.3332 21.7276 14.2569L21.4124 15.206C21.7564 15.3202 22.0929 15.359 22.3999 15.3001L22.2116 14.318ZM21.7274 14.2568L14.314 11.7987L13.9993 12.7479L21.4126 15.206L21.7274 14.2568ZM14.3138 11.7986C13.9031 11.6627 13.4435 11.3587 13.0424 10.9577C12.6414 10.5566 12.3377 10.0971 12.2021 9.68678L11.2526 10.0006C11.45 10.5979 11.857 11.1863 12.3353 11.6647C12.8137 12.1431 13.4021 12.5502 13.9995 12.748L14.3138 11.7986ZM12.202 9.68631L9.74384 2.27294L8.79466 2.58767L11.2528 10.001L12.202 9.68631ZM9.74396 2.2733C9.6677 2.04271 9.66436 1.88438 9.6827 1.78857L8.70054 1.60053C8.64164 1.90822 8.68105 2.24414 8.79454 2.5873L9.74396 2.2733ZM9.36111 2.16495C9.50695 2.1124 9.63923 2.06931 9.75315 2.03923L9.49785 1.07237C9.34477 1.11279 9.1823 1.16645 9.02214 1.22415L9.36111 2.16495ZM9.80683 2.02176L9.88296 1.99214L9.52029 1.06022L9.44417 1.08984L9.80683 2.02176ZM9.93238 1.96974C9.91785 1.9773 9.91005 1.97847 9.91333 1.97779C9.91667 1.97711 9.92837 1.97518 9.95025 1.97518V0.975176C9.7973 0.975176 9.62796 1.00089 9.47087 1.08261L9.93238 1.96974ZM9.95025 1.97518C10.0065 1.97518 10.0949 1.98784 10.2187 2.02872L10.5323 1.07914C10.3403 1.01576 10.143 0.975176 9.95025 0.975176V1.97518ZM10.2181 2.02852L17.6315 4.48664L17.9462 3.53746L10.5329 1.07934L10.2181 2.02852ZM17.6315 4.48663C17.9838 4.60347 18.3949 4.87655 18.7591 5.24091C19.1233 5.60527 19.3962 6.01655 19.5129 6.3687L20.4621 6.05415C20.2822 5.51118 19.9035 4.97126 19.4664 4.53397C19.0293 4.09668 18.4895 3.71763 17.9463 3.53747L17.6315 4.48663ZM19.5129 6.36882L21.9714 13.7818L22.9206 13.467L20.4621 6.05403L19.5129 6.36882ZM21.971 13.7807C22.0067 13.889 22.0211 13.9747 22.0236 14.0333C22.0263 14.0976 22.0136 14.0991 22.03 14.0675L22.9175 14.5284C23.0097 14.3509 23.0296 14.157 23.0227 13.9917C23.0156 13.8208 22.9783 13.6426 22.921 13.4682L21.971 13.7807Z" fill="#DB5540" mask="url(#path-13-outside-7)"/>
</svg>
