<svg width="20" height="20" viewBox="0 0 20 20" fill="none" xmlns="http://www.w3.org/2000/svg">
<path d="M2.55976 10.0029H2.55972L2.55977 9.99634C2.56138 9.77626 2.57315 9.55642 2.59502 9.33749L0.866039 8.01927L0.865938 8.0194L0.855871 8.01131C0.678652 7.8688 0.556648 7.66731 0.515347 7.44127C0.474064 7.21535 0.516823 6.98324 0.634197 6.78701C0.63435 6.78675 0.634504 6.78649 0.634657 6.78624L2.48457 3.67605L2.48453 3.67603L2.48781 3.67068C2.60632 3.47701 2.78922 3.33315 3.00192 3.26108C3.21444 3.18907 3.44579 3.19229 3.65625 3.2703L3.65628 3.27022L3.66478 3.27355L5.70815 4.07368C6.07919 3.81438 6.47421 3.58966 6.88801 3.40241L7.19187 1.30135L7.19433 1.28429L7.19797 1.26745C7.24491 1.04991 7.36564 0.856926 7.53724 0.718561C7.7086 0.580393 7.92106 0.504235 8.13974 0.50009L8.13974 0.5H8.14921H11.8508V0.499904L11.8606 0.500096C12.0839 0.504463 12.3006 0.584177 12.4733 0.728262C12.6463 0.872572 12.7649 1.07309 12.8053 1.29691L12.8069 1.30556L12.8081 1.31426L13.1122 3.41689C13.524 3.60519 13.9177 3.82925 14.2885 4.08641L16.3354 3.28563L16.3353 3.28555L16.344 3.28236C16.5545 3.20442 16.7859 3.20132 16.9985 3.27348C17.2112 3.3457 17.394 3.48973 17.5124 3.68355L17.5124 3.68353L17.5154 3.68857L19.3653 6.79876C19.3655 6.79905 19.3657 6.79934 19.3659 6.79963C19.4832 6.99585 19.5259 7.22792 19.4847 7.45379C19.4434 7.67982 19.3214 7.88132 19.1441 8.02383L19.1442 8.02396L19.134 8.03179L17.4056 9.3495C17.4275 9.56468 17.439 9.7808 17.4402 9.99714H17.4403L17.4402 10.0036C17.4386 10.2239 17.4269 10.4438 17.405 10.6629L19.134 11.9811L19.1341 11.981L19.1441 11.9891C19.3214 12.1316 19.4434 12.3331 19.4847 12.5591C19.5259 12.785 19.4832 13.0171 19.3658 13.2134C19.3657 13.2136 19.3655 13.2139 19.3653 13.2142L17.5154 16.324L17.5155 16.324L17.5122 16.3293C17.3937 16.523 17.2108 16.6668 16.9981 16.7389C16.7856 16.8109 16.5542 16.8077 16.3437 16.7297L16.3437 16.7298L16.3354 16.7265L14.29 15.9263C13.9196 16.1854 13.5252 16.4101 13.112 16.5974L12.8081 18.6987L12.8057 18.7157L12.802 18.7325C12.7551 18.9501 12.6344 19.1431 12.4628 19.2814C12.2914 19.4196 12.0789 19.4958 11.8603 19.4999L11.8603 19.5H11.8508H8.14921V19.5001L8.13944 19.4999C7.91608 19.4955 7.69939 19.4158 7.52668 19.2717C7.35369 19.1274 7.23513 18.9269 7.19469 18.7031L7.19312 18.6944L7.19187 18.6857L6.88778 16.5831C6.47602 16.3948 6.08232 16.1708 5.71145 15.9136L3.66464 16.7144L3.66467 16.7145L3.65605 16.7176C3.44549 16.7956 3.21408 16.7987 3.00155 16.7265C2.78883 16.6543 2.60597 16.5103 2.48759 16.3165L2.48756 16.3165L2.48457 16.3114L0.634657 13.2012C0.634504 13.201 0.63435 13.2007 0.634197 13.2005C0.516823 13.0042 0.474064 12.7721 0.515347 12.5462C0.556648 12.3202 0.678652 12.1187 0.855871 11.9762L0.855766 11.976L0.866039 11.9682L2.59436 10.6505C2.57255 10.4353 2.561 10.2192 2.55976 10.0029ZM11.5132 7.81623C11.0666 7.52565 10.5403 7.36972 10.0008 7.36957C9.27715 7.37184 8.58639 7.6529 8.07861 8.14739C7.57127 8.64145 7.28773 9.30805 7.28544 10.0009C7.28562 10.5178 7.44304 11.0243 7.73947 11.4563C8.03618 11.8887 8.45932 12.2277 8.95688 12.4284C9.45455 12.6292 10.0029 12.6819 10.532 12.5794C11.0611 12.4769 11.5454 12.2243 11.9242 11.8553C12.3029 11.4866 12.5592 11.0184 12.6629 10.5107C12.7666 10.0031 12.7135 9.47676 12.5098 8.99774C12.3059 8.51857 11.9599 8.10686 11.5132 7.81623Z" fill="#E7E7E7" stroke="#7E7482"/>
</svg>
