<svg width="26" height="26" viewBox="0 0 26 26" fill="none" xmlns="http://www.w3.org/2000/svg">
<path d="M22.7563 18.8719C21.9741 18.0891 21.0602 17.4501 20.0563 16.9844C21.472 15.8375 22.3751 14.0875 22.3751 12.125C22.3751 8.6625 19.4876 5.82188 16.0251 5.875C12.6157 5.92813 9.86883 8.70625 9.86883 12.125C9.86883 14.0875 10.7751 15.8375 12.1876 16.9844C11.1835 17.4498 10.2695 18.0888 9.48758 18.8719C7.78133 20.5813 6.81258 22.8375 6.75008 25.2437C6.74924 25.2771 6.75509 25.3103 6.76728 25.3413C6.77947 25.3724 6.79776 25.4007 6.82105 25.4246C6.84435 25.4485 6.8722 25.4674 6.90294 25.4804C6.93369 25.4933 6.96672 25.5 7.00008 25.5H8.75008C8.88445 25.5 8.99695 25.3937 9.00008 25.2594C9.05945 23.4469 9.79383 21.75 11.0845 20.4625C11.7449 19.7986 12.5305 19.2722 13.3957 18.9139C14.2609 18.5555 15.1886 18.3724 16.1251 18.375C18.0282 18.375 19.8188 19.1156 21.1657 20.4625C22.4532 21.75 23.1876 23.4469 23.2501 25.2594C23.2532 25.3937 23.3657 25.5 23.5001 25.5H25.2501C25.2834 25.5 25.3165 25.4933 25.3472 25.4804C25.378 25.4674 25.4058 25.4485 25.4291 25.4246C25.4524 25.4007 25.4707 25.3724 25.4829 25.3413C25.4951 25.3103 25.5009 25.2771 25.5001 25.2437C25.4376 22.8375 24.4688 20.5813 22.7563 18.8719ZM16.1251 16.125C15.0563 16.125 14.0501 15.7094 13.297 14.9531C12.919 14.5781 12.6204 14.1309 12.4191 13.638C12.2178 13.1451 12.1178 12.6167 12.1251 12.0844C12.1345 11.0594 12.5438 10.0688 13.2595 9.33438C14.0095 8.56563 15.0126 8.1375 16.0845 8.125C17.1438 8.11563 18.172 8.52813 18.9282 9.26875C19.7032 10.0281 20.1282 11.0438 20.1282 12.125C20.1282 13.1938 19.7126 14.1969 18.9563 14.9531C18.5853 15.3259 18.144 15.6214 17.6581 15.8226C17.1721 16.0237 16.651 16.1265 16.1251 16.125ZM8.29695 12.95C8.26883 12.6781 8.2532 12.4031 8.2532 12.125C8.2532 11.6281 8.30008 11.1438 8.38758 10.6719C8.40945 10.5594 8.35008 10.4438 8.24695 10.3969C7.82195 10.2063 7.43133 9.94375 7.09383 9.6125C6.69614 9.2269 6.3832 8.76263 6.17497 8.24932C5.96674 7.73601 5.8678 7.18494 5.88445 6.63125C5.91258 5.62813 6.3157 4.675 7.01883 3.95625C7.7907 3.16563 8.8282 2.73438 9.93133 2.74688C10.9282 2.75625 11.8907 3.14063 12.6188 3.82188C12.8657 4.05313 13.0782 4.30938 13.2563 4.58438C13.3188 4.68125 13.4407 4.72188 13.547 4.68438C14.097 4.49375 14.6782 4.35938 15.2751 4.29688C15.4501 4.27813 15.5501 4.09063 15.472 3.93438C14.4563 1.925 12.3813 0.537501 9.98133 0.500001C6.5157 0.446876 3.6282 3.2875 3.6282 6.74688C3.6282 8.70938 4.53133 10.4594 5.94695 11.6063C4.9532 12.0656 4.03758 12.7 3.24383 13.4938C1.53133 15.2031 0.562578 17.4594 0.500078 19.8687C0.499244 19.9021 0.505094 19.9353 0.517284 19.9663C0.529474 19.9974 0.547756 20.0257 0.571054 20.0496C0.594353 20.0735 0.622195 20.0924 0.652941 20.1054C0.683687 20.1183 0.716715 20.125 0.750078 20.125H2.5032C2.63758 20.125 2.75008 20.0187 2.7532 19.8844C2.81258 18.0719 3.54695 16.375 4.83758 15.0875C5.75633 14.1688 6.88133 13.5312 8.10945 13.2219C8.23133 13.1906 8.31258 13.075 8.29695 12.95Z" fill="#FFEBE8"/>
</svg>
